LabWeek2/circuit2.vcd
$date
	Fri Aug 18 12:46:12 2023
$end
$version
	Icarus Verilog
$end
$timescale
	1s
$end
$scope module tb_circuit2 $end
$scope module m1 $end
$var wire 1 ! A $end
$var wire 1 " B $end
$var wire 1 # C $end
$var wire 1 $ D $end
$var wire 1 % W1 $end
$upscope $end
$upscope $end
$enddefinitions $end
#0
$dumpvars
0%
0$
0#
0"
0!
$end
#5
1#
#10
0#
1"
#15
1$
1%
1#
#20
0%
0#
0"
1!
#25
1#
#30
0#
1"
#35
1%
1#
